<?xml version="1.0" encoding="UTF-8" standalone="no"?>
<!DOCTYPE svg PUBLIC "-//W3C//DTD SVG 1.1//EN"
 "http://www.w3.org/Graphics/SVG/1.1/DTD/svg11.dtd">
<!-- Generated by graphviz version 2.47.3 (20210619.1520)
 -->
<!-- Title: dependencies Pages: 1 -->
<svg width="314pt" height="247pt"
 viewBox="0.00 0.00 314.00 246.80" xmlns="http://www.w3.org/2000/svg" xmlns:xlink="http://www.w3.org/1999/xlink">
<g id="graph0" class="graph" transform="scale(1 1) rotate(0) translate(4 242.8)">
<title>dependencies</title>
<polygon fill="white" stroke="transparent" points="-4,4 -4,-242.8 310,-242.8 310,4 -4,4"/>
<text text-anchor="middle" x="153" y="-8.2" font-family="sans-serif" font-size="14.00">dependencies</text>
<g id="clust1" class="cluster">
<title>cluster_ConfigurationModule</title>
<polygon fill="none" stroke="black" stroke-dasharray="1,5" points="8,-32.8 8,-230.8 298,-230.8 298,-32.8 8,-32.8"/>
</g>
<g id="clust6" class="cluster">
<title>cluster_ConfigurationModule_providers</title>
<polygon fill="none" stroke="black" points="51,-40.8 51,-92.8 255,-92.8 255,-40.8 51,-40.8"/>
</g>
<g id="clust4" class="cluster">
<title>cluster_ConfigurationModule_exports</title>
<polygon fill="none" stroke="black" points="16,-170.8 16,-222.8 290,-222.8 290,-170.8 16,-170.8"/>
</g>
<!-- ConfigService  -->
<g id="node1" class="node">
<title>ConfigService </title>
<polygon fill="#fb8072" stroke="black" points="282.37,-214.8 181.63,-214.8 181.63,-178.8 282.37,-178.8 282.37,-214.8"/>
<text text-anchor="middle" x="232" y="-192.6" font-family="Times,serif" font-size="14.00">ConfigService </text>
</g>
<!-- ConfigurationService  -->
<g id="node2" class="node">
<title>ConfigurationService </title>
<polygon fill="#fb8072" stroke="black" points="164.02,-214.8 23.98,-214.8 23.98,-178.8 164.02,-178.8 164.02,-214.8"/>
<text text-anchor="middle" x="94" y="-192.6" font-family="Times,serif" font-size="14.00">ConfigurationService </text>
</g>
<!-- ConfigurationModule -->
<g id="node3" class="node">
<title>ConfigurationModule</title>
<polygon fill="#8dd3c7" stroke="black" points="222.09,-149.8 219.09,-153.8 198.09,-153.8 195.09,-149.8 83.91,-149.8 83.91,-113.8 222.09,-113.8 222.09,-149.8"/>
<text text-anchor="middle" x="153" y="-127.6" font-family="Times,serif" font-size="14.00">ConfigurationModule</text>
</g>
<!-- ConfigurationModule&#45;&gt;ConfigService  -->
<g id="edge1" class="edge">
<title>ConfigurationModule&#45;&gt;ConfigService </title>
<path fill="none" stroke="black" stroke-dasharray="5,2" d="M201.93,-149.91C201.93,-149.91 201.93,-168.79 201.93,-168.79"/>
<polygon fill="black" stroke="black" points="198.43,-168.79 201.93,-178.79 205.43,-168.79 198.43,-168.79"/>
</g>
<!-- ConfigurationModule&#45;&gt;ConfigurationService  -->
<g id="edge2" class="edge">
<title>ConfigurationModule&#45;&gt;ConfigurationService </title>
<path fill="none" stroke="black" stroke-dasharray="5,2" d="M123.98,-149.91C123.98,-149.91 123.98,-168.79 123.98,-168.79"/>
<polygon fill="black" stroke="black" points="120.48,-168.79 123.98,-178.79 127.48,-168.79 120.48,-168.79"/>
</g>
<!-- ConfigurationService -->
<g id="node4" class="node">
<title>ConfigurationService</title>
<ellipse fill="#fdb462" stroke="black" cx="153" cy="-66.8" rx="94.34" ry="18"/>
<text text-anchor="middle" x="153" y="-62.6" font-family="Times,serif" font-size="14.00">ConfigurationService</text>
</g>
<!-- ConfigurationService&#45;&gt;ConfigurationModule -->
<g id="edge3" class="edge">
<title>ConfigurationService&#45;&gt;ConfigurationModule</title>
<path fill="none" stroke="black" d="M153,-84.91C153,-84.91 153,-103.79 153,-103.79"/>
<polygon fill="black" stroke="black" points="149.5,-103.79 153,-113.79 156.5,-103.79 149.5,-103.79"/>
</g>
</g>
</svg>
